1.kNN算法理论 - 生物信息云
…
MedBioInfoCloud: summary(diabetesTib)
      class       glucose       insulin            sspg      
 Chemical:36   Min.   : 70   Min.   :  45.0   Min.   : 10.0  
 Normal  :76   1st Qu.: 90   1st Qu.: 352.0   1st Qu.:118.0  
 Overt   :33   Median : 97   Median : 403.0   Median :156.0  
               Mean   :122   Mean   : 540.8   Mean   :186.1  
               3rd Qu.:112   3rd Qu.: 558.0   3rd Qu.:221.0  
               Max.   :353   Max.   :1568.0   Max.   :748.0  
MedBioInfoCloud: 
MedBioInfoCloud: diabetesTib
# A tibble: 145 x 4
   class  glucose insulin  sspg
   <fct>    <dbl>   <dbl> <dbl>
 1 Normal      80     356   124
 2 Normal      97     289   117
 3 Normal     105     319   143
 4 Normal      90     356   199
 5 Normal      90     323   240
 6 Normal      86     381   157
 7 Normal     100     350   221
 8 Normal      85     301   186
 9 Normal      97     379   142
10 Normal      97     296   131
# ... with 135 more rows
# i Use `print(n = ...)` to see more rows
…
